{
	"20180719-210146_172_live": [
		{
			"turn": 0,
			"input": {
				"intent": {
					"@memory.beginning-of-dialog.1": {},
				}, 
				"unit": "<bos><eos>"
			},
			"output": {
				"intent": {
					"@memory.greeting.1": {}, // if empty, generic greeting. 
					"@memory.greeting.2": {   // How to represent well-being inquiry?
						"subject": "<speaker1>"
					}
				}, 
				"unit": "<bos> <speaker0>Hello.</speaker0> <speaker0>How are you?</speaker0> <eos>"
			},
			"topics": {
				"@topics.<speaker1>.1": {
					"topic-id": "c1e3aca5-b80b-476a-bebd-93eec1fe2928", // uuid4
					"topic-num": 0, 
					"word": "you", 
					"tag": "PRN"
					"introduced-in": "@memory.greeting.2", 
					"relevance-score": null,  // to rank relevant topics
					"turns-alive": null
				}
			}
		},
		{
			"turn": 1,
			"input": {
				"intent": {
					"@memory.greeting.3": {}  // How to represent greeting reciprocation?
				}, 
				"unit": "<speaker1>I'm good, how are you doing?</speaker1>"
			},
			"output": {
				"intent": {
					"@memory.greeting.4": {},
					"@memory.other.1": {
						"subject"		 : "<speaker0>", 
						"verb"			 : "organizing", 
						"object"		 : "information",
						"indirect-object": "charity"
					},
					"@memory.task-related-inquiry.1": { 
						"subject": "<speaker1>",
						"verb"   : "involved", 
						"object" : "charity" 
					}

				}, 
				"unit": "<bos> <speaker0>Very well.</speaker0> <speaker0>I'm just up organizing info for my charity.</speaker0> <speaker0>Are you involved with charities?</speaker0> <eos>"
			},
			"topics": {
				"@topics.<speaker0>.1": {		
					"topic-id": "2580d8c6-b780-4166-be9e-26a6a7380cfe"
					"topic-num": 1, 
					"word": "you", 
					"tag": "PRN"
					"introduced-in": "@memory.greeting.3", 
					"relevance-score": null,  // to rank relevant topics
					"turns-alive": null
				},
				"@topics.information.1": {
					"topic-id": "c7a83c8f-d2b5-4477-96fb-7ceeb4b98266"
					"topic-num": 2, 
					"word": "info", 
					"tag": "NN"
					"introduced-in": "@memory.other.1", 
					"relevance-score": null,  // to rank relevant topics
					"turns-alive": null
				},
				"@topics.charity.1": {
					"topic-id": "b33473dc-5478-46ba-81d7-38697e97de21"
					"topic-num": 3, 
					"word": "charity", 
					"tag": "NN"
					"introduced-in": "@memory.other.1", 
					"relevance-score": null,  // to rank relevant topics
					"turns-alive": null
				},  
			}
		},
		{
			"turn": 2,
			"input": {
				"intent": {
					"@memory.positive-to-inquiry.1": {},
					"@memory.positive-to-inquiry.2": {
						"subject": "<speaker1>",
						"verb"   : "work", 
						"object" : {
							"root": "children",
							"WITH" : "terminal illness"  // There has to be a better way to represent this. 
						} 
					}, 
					"@memory.task-related-inquiry.2": {
						"subject": "<speaker0>",
						"verb"   : "involved", 
						"object" : "charity" 
					}
				}, 
				"unit": "<bos> <speaker1>Yes!</speaker1> <speaker1>I work with children who have terminal illnesses.</speaker1> <speaker1>What charity are you involved in?</speaker1> <eos>"
			},
			"output": {
				"intent": {
					"@memory.acknowledgment.1": {},
					"@memory.neutral-to-inquiry.1": {
						"subject": "<speaker0>",
						"verb"   : "help", 
						"object" : "Save the Children" 
					},
				}, 
				"unit": "<bos> <speaker0>That's great!</speaker0> <speaker0>I help with Save The Children.</speaker0> <eos>"
			},
			"topics": {
				"@topics.children.1": {
					"topic-id": "5d85f261-f6d7-4e99-9774-e711d07996ab"
					"topic-num": 4,
					"word": "children", 
					"tag": "NNS"
					"introduced-in": "@memory.positive-to-inquiry.2", 
					"relevance-score": null,
					"turns-alive": null
				},
				"@topics.illness.1": {
					"topic-id": "fa3ebfa2-0aba-4e2d-97f0-5f831314f079"
					"topic-num": 5, 
					"word": "terminal illness", 
					"tag": "NNS"
					"introduced-in": "@memory.positive-to-inquiry.2", 
					"relevance-score": null,
					"turns-alive": null
				},
				"@topics.charity.2": {
					"topic-id": "439ca259-8436-4e8f-ae58-38bc6589ccfc"
					"topic-num": 6, 
					"word": "Save The Children", 
					"tag": "NNP"
					"introduced-in": "@memory.neutral-to-inquiry.1", 
					"relevance-score": null,
					"turns-alive": null
				},
			}
		},
		{
			"turn": 3,
			"input": {
				"intent": {
					"@memory.acknowledgment.2": {},
					"@memory.positive-reaction-to-donation.1": {}, 
					"@memory.task-related-inquiry.3": {
						"subject": "<speaker0>",
						"verb"   : "do", 
						"object" : "Save the Children" 
					}
				}, 
				"unit": "<bos> <speaker1>Amazing!</speaker1> <speaker1>Working with kids is the best.</speaker1> <speaker1>What do you do for Save the Children?</speaker1> <eos>"
			},
			"output": {
				"intent": {
					"@memory.neutral-to-inquiry.2": {}
				}, 
				"unit": "<bos> <speaker0>I help raise donations and volunteer time.</speaker0> <eos>"
			},
			"topics": {
				"@topics.children.2": {
					"topic-id": "385b313f-afea-4fd9-97d5-a264058f24dd"
					"topic-num": 7, 
					"word": "kids", 
					"tag": "NNS",
					"introduced-in": "@memory.positive-reaction-to-donation.1", 
					"relevance-score": null,
					"turns-alive": null
				},
				"@topics.donations.1": {
					"topic-id": "48ac48dd-8095-4587-ada5-0966de1e645c"
					"topic-num": 8, 
					"word": "donations", 
					"tag": "NNS",
					"introduced-in": "@memory.neutral-to-inquiry.2", 
					"relevance-score": null,
					"turns-alive": null
				},
				"@topics.volunteer.1": {
					"topic-id": "80169c23-450a-47ce-a6a9-b8c1a161f983"
					"topic-num": 9, 
					"word": "volunteer", 
					"tag": "NN"
					"introduced-in": "@memory.neutral-to-inquiry.2", 
					"relevance-score": null,
					"turns-alive": null
				},
				"@topics.time.1": {
					"topic-id": "73e606dd-d9cf-4208-85bf-acad78b9a430"
					"topic-num": 10, 
					"word": "time", 
					"tag": "NN"
					"introduced-in": "@memory.neutral-to-inquiry.2", 
					"relevance-score": null,
					"turns-alive": null
				},
			}
		},	
		{
			"turn": 4,
			"input": {
				"intent": {
					"@memory.acknowledgment.3": {},
					"@memory.task-related-inquiry.4": {
						"subject": "<speaker0>",
						"verb"   : "raise", 
						"object" : "donations" 
					}
				}, 
				"unit": "<bos> <speaker1>That's so important.</speaker1> <speaker1>How do you raise donations?</speaker1>  <eos>"
			},
			"output": {
				"intent": {
					"@memory.neutral-to-inquiry.3": {},
					"@memory.task-related-inquiry.5": {
						"subject"		 : "<speaker1>",
						"verb"   		 : "donate", 
						"object" 		 : "money", 
						"indirect-object": "charity"
					}
				}, 
				"unit": "<bos> <speaker0>By directly asking for aid.</speaker0> <speaker0>Do you currenly donate to your charity?</speaker0> <eos>"
			},
			"topics": {
				"@topics.donations.2": {
					"topic-id": "96bae326-f819-4396-8e3d-1db06b9c9f81"
					"topic-num": 11, 
					"word": "donations", 
					"tag": "NNS"
					"introduced-in": "@memory.task-related-inquiry.4", 
					"relevance-score": null,
					"turns-alive": null
				},
				"@topics.aid.1": {
					"topic-id": "dab877e8-a3df-4134-afd7-19b5566b481"
					"topic-num": 12, 
					"word": "aid", 
					"tag": "NN"
					"introduced-in": "@memory.neutral-to-inquiry.3", 
					"relevance-score": null,
					"turns-alive": null
				},
				"@topics.charity.3": {
					"topic-id": "dab877e8-a3df-4134-afd7-19b5566b481"
					"topic-num": 12, 
					"word": "charity", 
					"tag": "NN"
					"introduced-in": "@memory.task-related-inquiry.5", 
					"relevance-score": null,
					"turns-alive": null
				},
			}
		},		
		{
			"turn": 5,
			"input": {
				"intent": {
					"@memory.agree-donation.1": {},
				}, 
				"unit": "<bos> <speaker1>Yes I do, but I'm happy to donate to yours as well!</speaker1>  <eos>"
			},
			"output": {
				"intent": {
					"@memory.acknowledgment.4": {},
					"@memory.proposition-of-donation.1": {}, 
					"@memory.credibility-appeal.1": {}
				}, 
				"unit": "<bos> <speaker0>Wonderful!</speaker0> <speaker0>Would you be will to donate $1.00 of your task money to help Save the Children?</speaker0> <speaker0>Save the Children is an international non-governmental organization that promotes children's rights, provides relief and helps support children in developing countries.</speaker0> <eos>"
			}
			"topics": {
				"@topics.money.1": {
					"topic-id": "e15f66c9-7207-4791-9838-cf9d7c183fa3"
					"topic-num": 11, 
					"word": "task money", 
					"tag": "NNS"
					"introduced-in": "@memory.proposition-of-donation", 
					"relevance-score": null,
					"turns-alive": null
				},
				"@topics.charity.2": {
					"topic-id": "439ca259-8436-4e8f-ae58-38bc6589ccfc"
					"topic-num": 6, 
					"word": "Save The Children", 
					"tag": "NNP",
					"mentioned-in": [
						"@memory.proposition-of-donation.1", 
						"@memory.credibility-appeal.1"
					],
					"introduced-in": "@memory.neutral-to-inquiry.1", 
					"relevance-score": null,
					"turns-alive": null
				},
				"@topics.organization.1": {
					"topic-id": "a87a2812-0692-4ae3-a409-1e620e1984b5"
					"topic-num": 12, 
					"word": "organization", 
					"tag": "NN"
					"introduced-in": "@memory.credibility-appeal.1",
					
					"relevance-score": null,
					"turns-alive": null
				},
				"@topics.rights.1": {
					"topic-id": "d43a12d5-93e6-4ad5-89bc-8200745c87ea"
					"topic-num": 13, 
					"word": "children's rights", 
					"tag": "NNS"
					"introduced-in": "@memory.credibility-appeal.1", 
					"relevance-score": null,
					"turns-alive": null
				},
			}
		},	
		{
			"turn": 6,
			"input": {
				"intent": {
					"@memory.agree-donation.2": {}, 
				}, 
				"unit": "<bos> <speaker1>Yes, I would be happy to!</speaker1>  <eos>"
			},
			"output": {
				"intent": {
					"@memory.ask-donate-more.1": {}
				}, 
				"unit": "<bos> <speaker0>Would $2.00 be too much to ask?</speaker0> <eos>"
			}
		},	
		{
			"turn": 7,
			"input": {
				"intent": {
					"@memory.agree-donation.3": {}
				}, 
				"unit": "<bos> <speaker1>No, I can do it.</speaker1>  <eos>"
			},
			"output": {
				"intent": {
					"@memory.thank.1": {},
					"@memory.confirm-donation.1": {},
					"@memory.logical-appeal.1": {}
				}, 
				"unit": "<bos> <speaker0>Thank you.</speaker0> <speaker0>Can we make it$1.50?</speaker0> <speaker0>These children really need the assistance.</speaker0> <eos>"
			}
		},	
		{
			"turn": 8,
			"input": {
				"intent": {
					"@memory.provide-donation-amount.1": {}
				}, 
				"unit": "<bos> <speaker1>$1.50 sounds good then.</speaker1>  <eos>"
			},
			"output": {
				"intent": {
					"@memory.ask-donate-more.2": {}
				}, 
				"unit": "<bos> <speaker0>Why not $1.75 then? :-)</speaker0> <eos>"
			}
		},	
		{
			"turn": 9,
			"input": {
				"intent": {
					"@memory.provide-donation-amount.2": {},
					"@memory.positive-reaction-to-donation.2": {}
				}, 
				"unit": "<bos> <speaker1>I can do $2.00!</speaker1> <speaker1>Happy to help.</speaker1> <eos>" 
			},
			"output": {
				"intent": {
					"@memory.thank.2": {},
					"@memory.task-related-inquiry.6": {}
				}, 
				"unit": "<bos> <speaker0>Thank you so much!</speaker0> <speaker0>Do you have any more questions for me?</speaker0> <eos>"
			}
		},	
		{
			"turn": 10,
			"input": {
				"intent": {
					"@memory.negative-to-inquiry.1": {},
					"@memory.thank.3": {}
				}, 
				"unit": "<bos> <speaker1>Nope.</speaker1> <speaker1>Thank you!</speaker1> <eos>"
			},
			"output": {
				"intent": {
					"@memory.end-of-dialog.1": {}
				}, 
				"unit": "<bos><eos>"
			}
		},	
	]
}